{ "frames": {
   "efe6dd20182005.562e7d8443a20 0.gif": {
    "frame": { "x": 0, "y": 0, "w": 380, "h": 562 },
    "rotated": false,
    "trimmed": false,
    "spriteSourceSize": { "x": 0, "y": 0, "w": 380, "h": 562 },
    "sourceSize": { "w": 380, "h": 562 },
    "duration": 100
   },
   "efe6dd20182005.562e7d8443a20 1.gif": {
    "frame": { "x": 380, "y": 0, "w": 380, "h": 562 },
    "rotated": false,
    "trimmed": false,
    "spriteSourceSize": { "x": 0, "y": 0, "w": 380, "h": 562 },
    "sourceSize": { "w": 380, "h": 562 },
    "duration": 100
   },
   "efe6dd20182005.562e7d8443a20 2.gif": {
    "frame": { "x": 760, "y": 0, "w": 380, "h": 562 },
    "rotated": false,
    "trimmed": false,
    "spriteSourceSize": { "x": 0, "y": 0, "w": 380, "h": 562 },
    "sourceSize": { "w": 380, "h": 562 },
    "duration": 100
   },
   "efe6dd20182005.562e7d8443a20 3.gif": {
    "frame": { "x": 1140, "y": 0, "w": 380, "h": 562 },
    "rotated": false,
    "trimmed": false,
    "spriteSourceSize": { "x": 0, "y": 0, "w": 380, "h": 562 },
    "sourceSize": { "w": 380, "h": 562 },
    "duration": 100
   },
   "efe6dd20182005.562e7d8443a20 4.gif": {
    "frame": { "x": 1520, "y": 0, "w": 380, "h": 562 },
    "rotated": false,
    "trimmed": false,
    "spriteSourceSize": { "x": 0, "y": 0, "w": 380, "h": 562 },
    "sourceSize": { "w": 380, "h": 562 },
    "duration": 100
   },
   "efe6dd20182005.562e7d8443a20 5.gif": {
    "frame": { "x": 1900, "y": 0, "w": 380, "h": 562 },
    "rotated": false,
    "trimmed": false,
    "spriteSourceSize": { "x": 0, "y": 0, "w": 380, "h": 562 },
    "sourceSize": { "w": 380, "h": 562 },
    "duration": 100
   },
   "efe6dd20182005.562e7d8443a20 6.gif": {
    "frame": { "x": 2280, "y": 0, "w": 380, "h": 562 },
    "rotated": false,
    "trimmed": false,
    "spriteSourceSize": { "x": 0, "y": 0, "w": 380, "h": 562 },
    "sourceSize": { "w": 380, "h": 562 },
    "duration": 100
   },
   "efe6dd20182005.562e7d8443a20 7.gif": {
    "frame": { "x": 2660, "y": 0, "w": 380, "h": 562 },
    "rotated": false,
    "trimmed": false,
    "spriteSourceSize": { "x": 0, "y": 0, "w": 380, "h": 562 },
    "sourceSize": { "w": 380, "h": 562 },
    "duration": 100
   },
   "efe6dd20182005.562e7d8443a20 8.gif": {
    "frame": { "x": 3040, "y": 0, "w": 380, "h": 562 },
    "rotated": false,
    "trimmed": false,
    "spriteSourceSize": { "x": 0, "y": 0, "w": 380, "h": 562 },
    "sourceSize": { "w": 380, "h": 562 },
    "duration": 100
   },
   "efe6dd20182005.562e7d8443a20 9.gif": {
    "frame": { "x": 3420, "y": 0, "w": 380, "h": 562 },
    "rotated": false,
    "trimmed": false,
    "spriteSourceSize": { "x": 0, "y": 0, "w": 380, "h": 562 },
    "sourceSize": { "w": 380, "h": 562 },
    "duration": 100
   },
   "efe6dd20182005.562e7d8443a20 10.gif": {
    "frame": { "x": 3800, "y": 0, "w": 380, "h": 562 },
    "rotated": false,
    "trimmed": false,
    "spriteSourceSize": { "x": 0, "y": 0, "w": 380, "h": 562 },
    "sourceSize": { "w": 380, "h": 562 },
    "duration": 100
   },
   "efe6dd20182005.562e7d8443a20 11.gif": {
    "frame": { "x": 4180, "y": 0, "w": 380, "h": 562 },
    "rotated": false,
    "trimmed": false,
    "spriteSourceSize": { "x": 0, "y": 0, "w": 380, "h": 562 },
    "sourceSize": { "w": 380, "h": 562 },
    "duration": 100
   },
   "efe6dd20182005.562e7d8443a20 12.gif": {
    "frame": { "x": 4560, "y": 0, "w": 380, "h": 562 },
    "rotated": false,
    "trimmed": false,
    "spriteSourceSize": { "x": 0, "y": 0, "w": 380, "h": 562 },
    "sourceSize": { "w": 380, "h": 562 },
    "duration": 100
   },
   "efe6dd20182005.562e7d8443a20 13.gif": {
    "frame": { "x": 4940, "y": 0, "w": 380, "h": 562 },
    "rotated": false,
    "trimmed": false,
    "spriteSourceSize": { "x": 0, "y": 0, "w": 380, "h": 562 },
    "sourceSize": { "w": 380, "h": 562 },
    "duration": 100
   }
 },
 "meta": {
  "app": "http://www.aseprite.org/",
  "version": "1.2.6",
  "image": "/Users/Christopher/Desktop/efe6dd20182005.562e7d8443a20.png",
  "format": "I8",
  "size": { "w": 5320, "h": 562 },
  "scale": "1",
  "frameTags": [
  ],
  "layers": [
   { "name": "Layer", "opacity": 255, "blendMode": "normal" }
  ],
  "slices": [
  ]
 }
}
